Computer design of digital systems/08_fulladder/fulladder/simulation/qsim/FullAdder.msim.vcd
$comment
	File created using the following command:
		vcd file fulladder.msim.vcd -direction
$end
$date
	Fri Nov 11 11:25:56 2022
$end
$version
	ModelSim Version 10.1d
$end
$timescale
	1ps
$end
$scope module full_vlg_vec_tst $end
$var reg 1 ! a $end
$var reg 1 " b $end
$var reg 1 # cin $end
$var wire 1 $ cout $end
$var wire 1 % s $end
$var wire 1 & sampler $end
$scope module i1 $end
$var wire 1 ' gnd $end
$var wire 1 ( vcc $end
$var wire 1 ) unknown $end
$var tri1 1 * devclrn $end
$var tri1 1 + devpor $end
$var tri1 1 , devoe $end
$var wire 1 - s~output_o $end
$var wire 1 . cout~output_o $end
$var wire 1 / a~input_o $end
$var wire 1 0 cin~input_o $end
$var wire 1 1 b~input_o $end
$var wire 1 2 s~0_combout $end
$var wire 1 3 cout~0_combout $end
$upscope $end
$upscope $end
$enddefinitions $end
#0
$dumpvars
0!
0"
0#
0$
0%
x&
0'
1(
x)
1*
1+
1,
0-
0.
0/
00
01
02
03
$end
#120000
1!
1"
1/
11
0&
13
1.
1$
#200000
0!
0"
0/
01
1&
03
0.
0$
#340000
1!
1/
0&
12
1-
1%
#420000
0!
0/
1&
02
0-
0%
#480000
1"
11
0&
12
1-
1%
#580000
0"
01
1&
02
0-
0%
#640000
1#
10
0&
12
1-
1%
#780000
0#
00
1&
02
0-
0%
#840000
1!
1"
1#
1/
11
10
0&
13
12
1.
1-
1$
1%
#940000
0!
0"
0#
0/
01
00
1&
03
02
0.
0-
0$
0%
